%YAML 1.1
%TAG !u! tag:unity3d.com,2011:
--- !u!114 &11400000
MonoBehaviour:
  m_ObjectHideFlags: 0
  m_CorrespondingSourceObject: {fileID: 0}
  m_PrefabInstance: {fileID: 0}
  m_PrefabAsset: {fileID: 0}
  m_GameObject: {fileID: 0}
  m_Enabled: 1
  m_EditorHideFlags: 0
  m_Script: {fileID: 11500000, guid: 98a0befda4b1f449b9721f7f70b9dcf0, type: 3}
  m_Name: Highlight Plus Profile
  m_EditorClassIdentifier: 
  profile: {fileID: 0}
  active: 1
  ignoreFrames: 3
  duration: 1.5
  continuous: 0
  smooth: 0
  checkWorldPosition: 0
  minDistance: 0.1
  worldPositionRelativeOption: 0
  worldPositionRelativeTransform: {fileID: 0}
  checkScreenPosition: 1
  minPixelDistance: 10
  maxStepsPerFrame: 12
  checkTime: 0
  timeInterval: 2
  checkCollisions: 0
  orientToSurface: 1
  ground: 0
  surfaceOffset: 0.05
  collisionLayerMask:
    serializedVersion: 2
    m_Bits: 4294967295
  drawBehind: 1
  cullMode: 2
  colorOverTime:
    serializedVersion: 2
    key0: {r: 0.25735295, g: 0.3834132, b: 1, a: 1}
    key1: {r: 0, g: 0, b: 1, a: 1}
    key2: {r: 1, g: 1, b: 1, a: 0}
    key3: {r: 0, g: 0, b: 0, a: 0}
    key4: {r: 0, g: 0, b: 0, a: 0}
    key5: {r: 0, g: 0, b: 0, a: 0}
    key6: {r: 0, g: 0, b: 0, a: 0}
    key7: {r: 0, g: 0, b: 0, a: 0}
    ctime0: 0
    ctime1: 65535
    ctime2: 65535
    ctime3: 0
    ctime4: 0
    ctime5: 0
    ctime6: 0
    ctime7: 0
    atime0: 0
    atime1: 65535
    atime2: 0
    atime3: 0
    atime4: 0
    atime5: 0
    atime6: 0
    atime7: 0
    m_Mode: 0
    m_NumColorKeys: 2
    m_NumAlphaKeys: 2
  colorSequence: 0
  color: {r: 1, g: 1, b: 1, a: 1}
  colorCycleDuration: 3
  pingPongSpeed: 1
  colorStartPalette:
    serializedVersion: 2
    key0: {r: 1, g: 0, b: 0, a: 1}
    key1: {r: 0, g: 1, b: 0, a: 1}
    key2: {r: 0, g: 0, b: 1, a: 0}
    key3: {r: 0, g: 0, b: 0, a: 0}
    key4: {r: 0, g: 0, b: 0, a: 0}
    key5: {r: 0, g: 0, b: 0, a: 0}
    key6: {r: 0, g: 0, b: 0, a: 0}
    key7: {r: 0, g: 0, b: 0, a: 0}
    ctime0: 0
    ctime1: 32768
    ctime2: 65535
    ctime3: 0
    ctime4: 0
    ctime5: 0
    ctime6: 0
    ctime7: 0
    atime0: 0
    atime1: 65535
    atime2: 0
    atime3: 0
    atime4: 0
    atime5: 0
    atime6: 0
    atime7: 0
    m_Mode: 0
    m_NumColorKeys: 3
    m_NumAlphaKeys: 2
  cam: {fileID: 0}
  effect: 5
  texture: {fileID: 2800000, guid: 5d67d51a1e4c947a2aaebc1c814a3b7c, type: 3}
  scale: {x: 1, y: 1, z: 1}
  scaleStartRandomMin: {x: 1, y: 1, z: 1}
  scaleStartRandomMax: {x: 1, y: 1, z: 1}
  scaleOverTime:
    serializedVersion: 2
    m_Curve:
    - serializedVersion: 3
      time: 0
      value: 1
      inSlope: 0
      outSlope: 0
      tangentMode: 0
      weightedMode: 0
      inWeight: 0.33333334
      outWeight: 0.33333334
    - serializedVersion: 3
      time: 1
      value: 1
      inSlope: 0
      outSlope: 0
      tangentMode: 0
      weightedMode: 0
      inWeight: 0.33333334
      outWeight: 0.33333334
    m_PreInfinity: 2
    m_PostInfinity: 2
    m_RotationOrder: 4
  scaleUniform: 0
  localPositionRandomMin: {x: 0, y: 0, z: 0}
  localPositionRandomMax: {x: 0, y: 0, z: 0}
  laserBandWidth: 0.2
  laserIntensity: 20
  laserFlash: 0.1
  lookTarget: {fileID: 0}
  lookToCamera: 1
  textureCutOff: 0.5
  normalThreshold: 0.1
  useLastAnimationState: 0
  maxBatches: 15
  animationStates: 
